{
    "prepare_queue": {
        "installed": [],
        "uninstalled": []
    },
    "config_munge": {
        "files": {
            "config.xml": {
                "parents": {
                    "/*": [
                        {
                            "xml": "<feature name=\"InAppBrowser\"><param name=\"ios-package\" value=\"CDVInAppBrowser\" /></feature>",
                            "count": 1
                        },
                        {
                            "xml": "<access origin=\"https://oauth.io\" />",
                            "count": 1
                        },
                        {
                            "xml": "<feature name=\"Console\"><param name=\"ios-package\" value=\"CDVLogger\" /></feature>",
                            "count": 1
                        },
                        {
                            "xml": "<feature name=\"NetworkStatus\"><param name=\"ios-package\" value=\"CDVConnection\" /></feature>",
                            "count": 1
                        },
                        {
                            "xml": "<feature name=\"Camera\"><param name=\"ios-package\" value=\"CDVCamera\" /></feature>",
                            "count": 1
                        },
                        {
                            "xml": "<preference name=\"CameraUsesGeolocation\" value=\"false\" />",
                            "count": 1
                        },
                        {
                            "xml": "<feature name=\"Device\"><param name=\"ios-package\" value=\"CDVDevice\" /></feature>",
                            "count": 1
                        },
                        {
                            "xml": "<feature name=\"File\"><param name=\"ios-package\" value=\"CDVFile\" /><param name=\"onload\" value=\"true\" /></feature>",
                            "count": 1
                        },
                        {
                            "xml": "<feature name=\"FileTransfer\"><param name=\"ios-package\" value=\"CDVFileTransfer\" /></feature>",
                            "count": 1
                        },
                        {
                            "xml": "<feature name=\"Calendar\"><param name=\"ios-package\" value=\"Calendar\" /></feature>",
                            "count": 1
                        }
                    ]
                }
            },
            "*-Info.plist": {
                "parents": {
                    "NSLocationWhenInUseUsageDescription": [
                        {
                            "xml": "<string />",
                            "count": 1
                        }
                    ]
                }
            }
        }
    },
    "installed_plugins": {
        "cordova-plugin-inappbrowser": {
            "PACKAGE_NAME": "net.chukan.tvdiscover"
        },
        "com.oauthio.plugins.oauthio": {
            "PACKAGE_NAME": "net.chukan.tvdiscover"
        },
        "cordova-plugin-console": {
            "PACKAGE_NAME": "net.chukan.tvdiscover"
        },
        "cordova-plugin-network-information": {
            "PACKAGE_NAME": "net.chukan.tvdiscover"
        },
        "org.apache.cordova.camera": {
            "PACKAGE_NAME": "net.chukan.tvdiscover"
        },
        "org.apache.cordova.device": {
            "PACKAGE_NAME": "net.chukan.tvdiscover"
        },
        "org.apache.cordova.file": {
            "PACKAGE_NAME": "net.chukan.tvdiscover"
        },
        "org.apache.cordova.file-transfer": {
            "PACKAGE_NAME": "net.chukan.tvdiscover"
        },
        "cordova-plugin-calendar": {
            "PACKAGE_NAME": "net.chukan.tvdiscover"
        }
    },
    "dependent_plugins": {},
    "modules": [
        {
            "file": "plugins/cordova-plugin-inappbrowser/www/inappbrowser.js",
            "id": "cordova-plugin-inappbrowser.inappbrowser",
            "pluginId": "cordova-plugin-inappbrowser",
            "clobbers": [
                "cordova.InAppBrowser.open",
                "window.open"
            ]
        },
        {
            "file": "plugins/com.oauthio.plugins.oauthio/www/dist/oauth.js",
            "id": "com.oauthio.plugins.oauthio.OAuth",
            "pluginId": "com.oauthio.plugins.oauthio",
            "merges": [
                "OAuth"
            ]
        },
        {
            "file": "plugins/cordova-plugin-console/www/console-via-logger.js",
            "id": "cordova-plugin-console.console",
            "pluginId": "cordova-plugin-console",
            "clobbers": [
                "console"
            ]
        },
        {
            "file": "plugins/cordova-plugin-console/www/logger.js",
            "id": "cordova-plugin-console.logger",
            "pluginId": "cordova-plugin-console",
            "clobbers": [
                "cordova.logger"
            ]
        },
        {
            "file": "plugins/cordova-plugin-network-information/www/network.js",
            "id": "cordova-plugin-network-information.network",
            "pluginId": "cordova-plugin-network-information",
            "clobbers": [
                "navigator.connection",
                "navigator.network.connection"
            ]
        },
        {
            "file": "plugins/cordova-plugin-network-information/www/Connection.js",
            "id": "cordova-plugin-network-information.Connection",
            "pluginId": "cordova-plugin-network-information",
            "clobbers": [
                "Connection"
            ]
        },
        {
            "file": "plugins/org.apache.cordova.camera/www/CameraConstants.js",
            "id": "org.apache.cordova.camera.Camera",
            "pluginId": "org.apache.cordova.camera",
            "clobbers": [
                "Camera"
            ]
        },
        {
            "file": "plugins/org.apache.cordova.camera/www/CameraPopoverOptions.js",
            "id": "org.apache.cordova.camera.CameraPopoverOptions",
            "pluginId": "org.apache.cordova.camera",
            "clobbers": [
                "CameraPopoverOptions"
            ]
        },
        {
            "file": "plugins/org.apache.cordova.camera/www/Camera.js",
            "id": "org.apache.cordova.camera.camera",
            "pluginId": "org.apache.cordova.camera",
            "clobbers": [
                "navigator.camera"
            ]
        },
        {
            "file": "plugins/org.apache.cordova.camera/www/ios/CameraPopoverHandle.js",
            "id": "org.apache.cordova.camera.CameraPopoverHandle",
            "pluginId": "org.apache.cordova.camera",
            "clobbers": [
                "CameraPopoverHandle"
            ]
        },
        {
            "file": "plugins/org.apache.cordova.device/www/device.js",
            "id": "org.apache.cordova.device.device",
            "pluginId": "org.apache.cordova.device",
            "clobbers": [
                "device"
            ]
        },
        {
            "file": "plugins/org.apache.cordova.file/www/DirectoryEntry.js",
            "id": "org.apache.cordova.file.DirectoryEntry",
            "pluginId": "org.apache.cordova.file",
            "clobbers": [
                "window.DirectoryEntry"
            ]
        },
        {
            "file": "plugins/org.apache.cordova.file/www/DirectoryReader.js",
            "id": "org.apache.cordova.file.DirectoryReader",
            "pluginId": "org.apache.cordova.file",
            "clobbers": [
                "window.DirectoryReader"
            ]
        },
        {
            "file": "plugins/org.apache.cordova.file/www/Entry.js",
            "id": "org.apache.cordova.file.Entry",
            "pluginId": "org.apache.cordova.file",
            "clobbers": [
                "window.Entry"
            ]
        },
        {
            "file": "plugins/org.apache.cordova.file/www/File.js",
            "id": "org.apache.cordova.file.File",
            "pluginId": "org.apache.cordova.file",
            "clobbers": [
                "window.File"
            ]
        },
        {
            "file": "plugins/org.apache.cordova.file/www/FileEntry.js",
            "id": "org.apache.cordova.file.FileEntry",
            "pluginId": "org.apache.cordova.file",
            "clobbers": [
                "window.FileEntry"
            ]
        },
        {
            "file": "plugins/org.apache.cordova.file/www/FileError.js",
            "id": "org.apache.cordova.file.FileError",
            "pluginId": "org.apache.cordova.file",
            "clobbers": [
                "window.FileError"
            ]
        },
        {
            "file": "plugins/org.apache.cordova.file/www/FileReader.js",
            "id": "org.apache.cordova.file.FileReader",
            "pluginId": "org.apache.cordova.file",
            "clobbers": [
                "window.FileReader"
            ]
        },
        {
            "file": "plugins/org.apache.cordova.file/www/FileSystem.js",
            "id": "org.apache.cordova.file.FileSystem",
            "pluginId": "org.apache.cordova.file",
            "clobbers": [
                "window.FileSystem"
            ]
        },
        {
            "file": "plugins/org.apache.cordova.file/www/FileUploadOptions.js",
            "id": "org.apache.cordova.file.FileUploadOptions",
            "pluginId": "org.apache.cordova.file",
            "clobbers": [
                "window.FileUploadOptions"
            ]
        },
        {
            "file": "plugins/org.apache.cordova.file/www/FileUploadResult.js",
            "id": "org.apache.cordova.file.FileUploadResult",
            "pluginId": "org.apache.cordova.file",
            "clobbers": [
                "window.FileUploadResult"
            ]
        },
        {
            "file": "plugins/org.apache.cordova.file/www/FileWriter.js",
            "id": "org.apache.cordova.file.FileWriter",
            "pluginId": "org.apache.cordova.file",
            "clobbers": [
                "window.FileWriter"
            ]
        },
        {
            "file": "plugins/org.apache.cordova.file/www/Flags.js",
            "id": "org.apache.cordova.file.Flags",
            "pluginId": "org.apache.cordova.file",
            "clobbers": [
                "window.Flags"
            ]
        },
        {
            "file": "plugins/org.apache.cordova.file/www/LocalFileSystem.js",
            "id": "org.apache.cordova.file.LocalFileSystem",
            "pluginId": "org.apache.cordova.file",
            "clobbers": [
                "window.LocalFileSystem"
            ],
            "merges": [
                "window"
            ]
        },
        {
            "file": "plugins/org.apache.cordova.file/www/Metadata.js",
            "id": "org.apache.cordova.file.Metadata",
            "pluginId": "org.apache.cordova.file",
            "clobbers": [
                "window.Metadata"
            ]
        },
        {
            "file": "plugins/org.apache.cordova.file/www/ProgressEvent.js",
            "id": "org.apache.cordova.file.ProgressEvent",
            "pluginId": "org.apache.cordova.file",
            "clobbers": [
                "window.ProgressEvent"
            ]
        },
        {
            "file": "plugins/org.apache.cordova.file/www/fileSystems.js",
            "id": "org.apache.cordova.file.fileSystems",
            "pluginId": "org.apache.cordova.file"
        },
        {
            "file": "plugins/org.apache.cordova.file/www/requestFileSystem.js",
            "id": "org.apache.cordova.file.requestFileSystem",
            "pluginId": "org.apache.cordova.file",
            "clobbers": [
                "window.requestFileSystem"
            ]
        },
        {
            "file": "plugins/org.apache.cordova.file/www/resolveLocalFileSystemURI.js",
            "id": "org.apache.cordova.file.resolveLocalFileSystemURI",
            "pluginId": "org.apache.cordova.file",
            "merges": [
                "window"
            ]
        },
        {
            "file": "plugins/org.apache.cordova.file/www/ios/FileSystem.js",
            "id": "org.apache.cordova.file.iosFileSystem",
            "pluginId": "org.apache.cordova.file",
            "merges": [
                "FileSystem"
            ]
        },
        {
            "file": "plugins/org.apache.cordova.file/www/fileSystems-roots.js",
            "id": "org.apache.cordova.file.fileSystems-roots",
            "pluginId": "org.apache.cordova.file",
            "runs": true
        },
        {
            "file": "plugins/org.apache.cordova.file/www/fileSystemPaths.js",
            "id": "org.apache.cordova.file.fileSystemPaths",
            "pluginId": "org.apache.cordova.file",
            "merges": [
                "cordova"
            ],
            "runs": true
        },
        {
            "file": "plugins/org.apache.cordova.file-transfer/www/FileTransferError.js",
            "id": "org.apache.cordova.file-transfer.FileTransferError",
            "pluginId": "org.apache.cordova.file-transfer",
            "clobbers": [
                "window.FileTransferError"
            ]
        },
        {
            "file": "plugins/org.apache.cordova.file-transfer/www/FileTransfer.js",
            "id": "org.apache.cordova.file-transfer.FileTransfer",
            "pluginId": "org.apache.cordova.file-transfer",
            "clobbers": [
                "window.FileTransfer"
            ]
        },
        {
            "file": "plugins/cordova-plugin-calendar/www/Calendar.js",
            "id": "cordova-plugin-calendar.Calendar",
            "pluginId": "cordova-plugin-calendar",
            "clobbers": [
                "Calendar"
            ]
        },
        {
            "file": "plugins/cordova-plugin-calendar/test/tests.js",
            "id": "cordova-plugin-calendar.tests",
            "pluginId": "cordova-plugin-calendar"
        }
    ],
    "plugin_metadata": {
        "cordova-plugin-inappbrowser": "1.0.2-dev",
        "com.oauthio.plugins.oauthio": "0.2.4",
        "cordova-plugin-console": "1.0.2-dev",
        "cordova-plugin-network-information": "1.0.2-dev",
        "org.apache.cordova.camera": "0.3.6",
        "org.apache.cordova.device": "0.3.0",
        "org.apache.cordova.file": "1.3.3",
        "org.apache.cordova.file-transfer": "0.5.0",
        "cordova-plugin-calendar": "4.4.5"
    }
}